"",""
"Корзина покупок",""
"Купить в один клик",""
"Введите Ваш номер телефона",""
"Купить",""
"Сообщить о наличии",""
"Заказать звонок",""
"Ваше имя:",""
"Телефон:",""
"Если нужно, укажите, пожалуйста, время удобное для звонка:",""
"Оформить заявку",""
"Сообщение:",""
"Авторизация",""
"Адрес e-mail",""
"Пароль",""
"Войти",""
"Регистрация",""
"Имя",""
"Подтверждение пароля",""
"Зарегистрироваться",""
"Сравнение товаров",""
"Вернуться назад","Tagasipöördumine"
